…
      income == "Lower class"  ~ 1,
      income == "Working class" ~ 2,
      income == "Lower middle class" ~ 3,
      income == "Upper middle class" ~ 4,
      income == "Upper class" ~ 5
    ), 
    income = fct_reorder(income, ranking)
  ) %>% 
  count(education, income) %>% 
  group_by(income) %>% 
  mutate(prop = n / sum(n)) %>% 
  arrange(income)
```

    ## # A tibble: 42 x 4
    ## # Groups:   income [6]
    ##    education             income            n   prop
    ##    <fct>                 <fct>         <int>  <dbl>
    ##  1 Incomplete elementary Lower class    5981 0.138 
    ##  2 Complete elementary   Lower class    6679 0.154 
    ##  3 Incomplete secondary  Lower class    6564 0.151 
    ##  4 Complete secondary    Lower class    8406 0.194 
    ##  5 Some higher education Lower class     898 0.0207
    ##  6 Higher education      Lower class    1106 0.0255
    ##  7 <NA>                  Lower class   13696 0.316 
    ##  8 Incomplete elementary Working class  6311 0.0685
    ##  9 Complete elementary   Working class 12134 0.132 
    ## 10 Incomplete secondary  Working class 14087 0.153 
    ## # … with 32 more rows
…
``` r
wvs %>% 
  filter(wave == 6) %>% 
  group_by(country, region) %>% 
  summarise(dem_overall = weighted.mean(dem_overall, w = weight, na.rm = TRUE)) %>% 
  arrange(dem_overall)
```

    ## `summarise()` regrouping output by 'country' (override with `.groups` argument)

    ## # A tibble: 60 x 3
    ## # Groups:   country [60]
    ##    country   region                     dem_overall
    ##    <chr>     <chr>                            <dbl>
    ##  1 Haiti     Latin America & Caribbean         4.24
    ##  2 Rwanda    Sub-Saharan Africa                4.60
    ##  3 Nigeria   Sub-Saharan Africa                4.66
    ##  4 Belarus   Europe & Central Asia             4.67
    ##  5 Singapore East Asia & Pacific               4.71
    ##  6 Palestine Middle East & North Africa        4.82
    ##  7 Ghana     Sub-Saharan Africa                4.83
    ##  8 Iraq      Middle East & North Africa        4.84
    ##  9 Ukraine   Europe & Central Asia             4.84
    ## 10 Thailand  East Asia & Pacific               4.87
    ## # … with 50 more rows
…
